{
  "required": true,
  "package": "me.elucent.earlgray.mixin",
  "compatibilityLevel": "JAVA_8",
  "mixins": [
    "EntityMixin",
    "ServerPlayerMixin",
    "WorldMixin"
  ],
  "injectors": {
    "defaultRequire": 1
  }
}
